isim.log
ISim log file
Running: F:\verilog_work\encoder_8b10b\encoder_8b10b_tb_isim_beh.exe -intstyle ise -gui -tclbatch isim.cmd -wdb F:/verilog_work/encoder_8b10b/encoder_8b10b_tb_isim_beh.wdb 
ISim O.40d (signature 0x79f3f3a8)
This is a Full version of ISim.
Time resolution is 1 ps
# onerror resume
# wave add /
# run 1000 ns
Simulator is doing circuit initialization process.
Finished circuit initialization process.
check 3b4b -- rin = 0
INPUT: Rd = 0 ABCDE FGH = 00000 000 OUTPUT: abcdei fghj = 011000 1011 EXPECTED: abcdei fghj = 011000 1011 => PASS
INPUT: Rd = 0 ABCDE FGH = 00000 100 OUTPUT: abcdei fghj = 011000 1001 EXPECTED: abcdei fghj = 011000 1001 => PASS
INPUT: Rd = 0 ABCDE FGH = 00000 010 OUTPUT: abcdei fghj = 011000 0101 EXPECTED: abcdei fghj = 011000 0101 => PASS
INPUT: Rd = 0 ABCDE FGH = 00000 110 OUTPUT: abcdei fghj = 011000 1100 EXPECTED: abcdei fghj = 011000 1100 => PASS
INPUT: Rd = 0 ABCDE FGH = 00000 001 OUTPUT: abcdei fghj = 011000 1101 EXPECTED: abcdei fghj = 011000 1101 => PASS
INPUT: Rd = 0 ABCDE FGH = 00000 101 OUTPUT: abcdei fghj = 011000 1010 EXPECTED: abcdei fghj = 011000 1010 => PASS
INPUT: Rd = 0 ABCDE FGH = 00000 011 OUTPUT: abcdei fghj = 011000 0110 EXPECTED: abcdei fghj = 011000 0110 => PASS
INPUT: Rd = 0 ABCDE FGH = 00000 111 OUTPUT: abcdei fghj = 011000 1110 EXPECTED: abcdei fghj = 011000 1110 => PASS
check 3b4b -- rin = 1
INPUT: Rd = 1 ABCDE FGH = 00000 000 OUTPUT: abcdei fghj = 100111 0100 EXPECTED: abcdei fghj = 100111 0100 => PASS
INPUT: Rd = 1 ABCDE FGH = 00000 100 OUTPUT: abcdei fghj = 100111 1001 EXPECTED: abcdei fghj = 100111 1001 => PASS
INPUT: Rd = 1 ABCDE FGH = 00000 010 OUTPUT: abcdei fghj = 100111 0101 EXPECTED: abcdei fghj = 100111 0101 => PASS
INPUT: Rd = 1 ABCDE FGH = 00000 110 OUTPUT: abcdei fghj = 100111 0011 EXPECTED: abcdei fghj = 100111 0011 => PASS
INPUT: Rd = 1 ABCDE FGH = 00000 001 OUTPUT: abcdei fghj = 100111 0010 EXPECTED: abcdei fghj = 100111 0010 => PASS
INPUT: Rd = 1 ABCDE FGH = 00000 101 OUTPUT: abcdei fghj = 100111 1010 EXPECTED: abcdei fghj = 100111 1010 => PASS
INPUT: Rd = 1 ABCDE FGH = 00000 011 OUTPUT: abcdei fghj = 100111 0110 EXPECTED: abcdei fghj = 100111 0110 => PASS
# run 1.00us
INPUT: Rd = 1 ABCDE FGH = 00000 111 OUTPUT: abcdei fghj = 100111 0001 EXPECTED: abcdei fghj = 100111 0001 => PASS
check 5b6b -- rin = 0 -- e = 0
INPUT: Rd = 0 ABCDE FGH = 00000 111 OUTPUT: abcdei fghj = 011000 1110 EXPECTED: abcdei fghj = 011000 1110 => PASS
INPUT: Rd = 0 ABCDE FGH = 10000 111 OUTPUT: abcdei fghj = 100010 1110 EXPECTED: abcdei fghj = 100010 1110 => PASS
INPUT: Rd = 0 ABCDE FGH = 01000 111 OUTPUT: abcdei fghj = 010010 1110 EXPECTED: abcdei fghj = 010010 1110 => PASS
INPUT: Rd = 0 ABCDE FGH = 11000 111 OUTPUT: abcdei fghj = 110001 1110 EXPECTED: abcdei fghj = 110001 1110 => PASS
INPUT: Rd = 0 ABCDE FGH = 00100 111 OUTPUT: abcdei fghj = 001010 1110 EXPECTED: abcdei fghj = 001010 1110 => PASS
INPUT: Rd = 0 ABCDE FGH = 10100 111 OUTPUT: abcdei fghj = 101001 1110 EXPECTED: abcdei fghj = 101001 1110 => PASS
INPUT: Rd = 0 ABCDE FGH = 01100 111 OUTPUT: abcdei fghj = 011001 1110 EXPECTED: abcdei fghj = 011001 1110 => PASS
INPUT: Rd = 0 ABCDE FGH = 11100 111 OUTPUT: abcdei fghj = 000111 1110 EXPECTED: abcdei fghj = 000111 1110 => PASS
INPUT: Rd = 0 ABCDE FGH = 00010 111 OUTPUT: abcdei fghj = 000110 1110 EXPECTED: abcdei fghj = 000110 1110 => PASS
INPUT: Rd = 0 ABCDE FGH = 10010 111 OUTPUT: abcdei fghj = 100101 1110 EXPECTED: abcdei fghj = 100101 1110 => PASS
INPUT: Rd = 0 ABCDE FGH = 01010 111 OUTPUT: abcdei fghj = 010101 1110 EXPECTED: abcdei fghj = 010101 1110 => PASS
INPUT: Rd = 0 ABCDE FGH = 11010 111 OUTPUT: abcdei fghj = 110100 1110 EXPECTED: abcdei fghj = 110100 1110 => PASS
INPUT: Rd = 0 ABCDE FGH = 00110 111 OUTPUT: abcdei fghj = 001101 1110 EXPECTED: abcdei fghj = 001101 1110 => PASS
INPUT: Rd = 0 ABCDE FGH = 10110 111 OUTPUT: abcdei fghj = 101100 1110 EXPECTED: abcdei fghj = 101100 1110 => PASS
INPUT: Rd = 0 ABCDE FGH = 01110 111 OUTPUT: abcdei fghj = 011100 1110 EXPECTED: abcdei fghj = 011100 1110 => PASS
# run 1.00us
INPUT: Rd = 0 ABCDE FGH = 11110 111 OUTPUT: abcdei fghj = 101000 1110 EXPECTED: abcdei fghj = 101000 1110 => PASS
check 5b6b -- rin = 0 -- e = 1
INPUT: Rd = 0 ABCDE FGH = 00001 111 OUTPUT: abcdei fghj = 100100 1110 EXPECTED: abcdei fghj = 100100 1110 => PASS
INPUT: Rd = 0 ABCDE FGH = 10001 111 OUTPUT: abcdei fghj = 100011 1110 EXPECTED: abcdei fghj = 100011 1110 => PASS
INPUT: Rd = 0 ABCDE FGH = 01001 111 OUTPUT: abcdei fghj = 010011 1110 EXPECTED: abcdei fghj = 010011 1110 => PASS
INPUT: Rd = 0 ABCDE FGH = 11001 111 OUTPUT: abcdei fghj = 110010 1110 EXPECTED: abcdei fghj = 110010 1110 => PASS
INPUT: Rd = 0 ABCDE FGH = 00101 111 OUTPUT: abcdei fghj = 001011 1110 EXPECTED: abcdei fghj = 001011 1110 => PASS
INPUT: Rd = 0 ABCDE FGH = 10101 111 OUTPUT: abcdei fghj = 101010 1110 EXPECTED: abcdei fghj = 101010 1110 => PASS
INPUT: Rd = 0 ABCDE FGH = 01101 111 OUTPUT: abcdei fghj = 011010 1110 EXPECTED: abcdei fghj = 011010 1110 => PASS
INPUT: Rd = 0 ABCDE FGH = 11101 111 OUTPUT: abcdei fghj = 000101 1110 EXPECTED: abcdei fghj = 000101 1110 => PASS
INPUT: Rd = 0 ABCDE FGH = 00011 111 OUTPUT: abcdei fghj = 001100 1110 EXPECTED: abcdei fghj = 001100 1110 => PASS
INPUT: Rd = 0 ABCDE FGH = 10011 111 OUTPUT: abcdei fghj = 100110 1110 EXPECTED: abcdei fghj = 100110 1110 => PASS
INPUT: Rd = 0 ABCDE FGH = 01011 111 OUTPUT: abcdei fghj = 010110 1110 EXPECTED: abcdei fghj = 010110 1110 => PASS
INPUT: Rd = 0 ABCDE FGH = 11011 111 OUTPUT: abcdei fghj = 101001 1110 EXPECTED: abcdei fghj = 101001 1110 => PASS
INPUT: Rd = 0 ABCDE FGH = 00111 111 OUTPUT: abcdei fghj = 001110 1110 EXPECTED: abcdei fghj = 001110 1110 => PASS
INPUT: Rd = 0 ABCDE FGH = 10111 111 OUTPUT: abcdei fghj = 010001 1110 EXPECTED: abcdei fghj = 010001 1110 => PASS
INPUT: Rd = 0 ABCDE FGH = 01111 111 OUTPUT: abcdei fghj = 100001 1110 EXPECTED: abcdei fghj = 100001 1110 => PASS
INPUT: Rd = 0 ABCDE FGH = 11111 111 OUTPUT: abcdei fghj = 010100 1110 EXPECTED: abcdei fghj = 010100 1110 => PASS
# run 1.00us
check 5b6b -- rin = 1 -- e = 0
INPUT: Rd = 1 ABCDE FGH = 00000 111 OUTPUT: abcdei fghj = 100111 0001 EXPECTED: abcdei fghj = 100111 0001 => PASS
INPUT: Rd = 1 ABCDE FGH = 10000 111 OUTPUT: abcdei fghj = 011101 0001 EXPECTED: abcdei fghj = 011101 0001 => PASS
INPUT: Rd = 1 ABCDE FGH = 01000 111 OUTPUT: abcdei fghj = 101101 0001 EXPECTED: abcdei fghj = 101101 0001 => PASS
INPUT: Rd = 1 ABCDE FGH = 11000 111 OUTPUT: abcdei fghj = 110001 0001 EXPECTED: abcdei fghj = 110001 0001 => PASS
INPUT: Rd = 1 ABCDE FGH = 00100 111 OUTPUT: abcdei fghj = 110101 0001 EXPECTED: abcdei fghj = 110101 0001 => PASS
INPUT: Rd = 1 ABCDE FGH = 10100 111 OUTPUT: abcdei fghj = 101001 0001 EXPECTED: abcdei fghj = 101001 0001 => PASS
INPUT: Rd = 1 ABCDE FGH = 01100 111 OUTPUT: abcdei fghj = 011001 0001 EXPECTED: abcdei fghj = 011001 0001 => PASS
INPUT: Rd = 1 ABCDE FGH = 11100 111 OUTPUT: abcdei fghj = 111000 0001 EXPECTED: abcdei fghj = 111000 0001 => PASS
INPUT: Rd = 1 ABCDE FGH = 00010 111 OUTPUT: abcdei fghj = 111001 0001 EXPECTED: abcdei fghj = 111001 0001 => PASS
INPUT: Rd = 1 ABCDE FGH = 10010 111 OUTPUT: abcdei fghj = 100101 0001 EXPECTED: abcdei fghj = 100101 0001 => PASS
INPUT: Rd = 1 ABCDE FGH = 01010 111 OUTPUT: abcdei fghj = 010101 0001 EXPECTED: abcdei fghj = 010101 0001 => PASS
INPUT: Rd = 1 ABCDE FGH = 11010 111 OUTPUT: abcdei fghj = 110100 0001 EXPECTED: abcdei fghj = 110100 0001 => PASS
INPUT: Rd = 1 ABCDE FGH = 00110 111 OUTPUT: abcdei fghj = 001101 0001 EXPECTED: abcdei fghj = 001101 0001 => PASS
INPUT: Rd = 1 ABCDE FGH = 10110 111 OUTPUT: abcdei fghj = 101100 0001 EXPECTED: abcdei fghj = 101100 0001 => PASS
INPUT: Rd = 1 ABCDE FGH = 01110 111 OUTPUT: abcdei fghj = 011100 0001 EXPECTED: abcdei fghj = 011100 0001 => PASS
INPUT: Rd = 1 ABCDE FGH = 11110 111 OUTPUT: abcdei fghj = 010111 0001 EXPECTED: abcdei fghj = 010111 0001 => PASS
check 5b6b -- rin = 1 -- e = 1
INPUT: Rd = 1 ABCDE FGH = 00001 111 OUTPUT: abcdei fghj = 011011 0001 EXPECTED: abcdei fghj = 011011 0001 => PASS
# run 1.00us
INPUT: Rd = 1 ABCDE FGH = 10001 111 OUTPUT: abcdei fghj = 100011 0001 EXPECTED: abcdei fghj = 100011 0001 => PASS
INPUT: Rd = 1 ABCDE FGH = 01001 111 OUTPUT: abcdei fghj = 010011 0001 EXPECTED: abcdei fghj = 010011 0001 => PASS
INPUT: Rd = 1 ABCDE FGH = 11001 111 OUTPUT: abcdei fghj = 110010 0001 EXPECTED: abcdei fghj = 110010 0001 => PASS
INPUT: Rd = 1 ABCDE FGH = 00101 111 OUTPUT: abcdei fghj = 001011 0001 EXPECTED: abcdei fghj = 001011 0001 => PASS
INPUT: Rd = 1 ABCDE FGH = 10101 111 OUTPUT: abcdei fghj = 101010 0001 EXPECTED: abcdei fghj = 101010 0001 => PASS
INPUT: Rd = 1 ABCDE FGH = 01101 111 OUTPUT: abcdei fghj = 011010 0001 EXPECTED: abcdei fghj = 011010 0001 => PASS
INPUT: Rd = 1 ABCDE FGH = 11101 111 OUTPUT: abcdei fghj = 111010 0001 EXPECTED: abcdei fghj = 111010 0001 => PASS
INPUT: Rd = 1 ABCDE FGH = 00011 111 OUTPUT: abcdei fghj = 110011 0001 EXPECTED: abcdei fghj = 110011 0001 => PASS
INPUT: Rd = 1 ABCDE FGH = 10011 111 OUTPUT: abcdei fghj = 100110 0001 EXPECTED: abcdei fghj = 100110 0001 => PASS
INPUT: Rd = 1 ABCDE FGH = 01011 111 OUTPUT: abcdei fghj = 010110 0001 EXPECTED: abcdei fghj = 010110 0001 => PASS
INPUT: Rd = 1 ABCDE FGH = 00111 111 OUTPUT: abcdei fghj = 001110 0001 EXPECTED: abcdei fghj = 001110 0001 => PASS
INPUT: Rd = 1 ABCDE FGH = 10111 111 OUTPUT: abcdei fghj = 101110 0001 EXPECTED: abcdei fghj = 101110 0001 => PASS
INPUT: Rd = 1 ABCDE FGH = 01111 111 OUTPUT: abcdei fghj = 011110 0001 EXPECTED: abcdei fghj = 011110 0001 => PASS
INPUT: Rd = 1 ABCDE FGH = 11111 111 OUTPUT: abcdei fghj = 101011 0001 EXPECTED: abcdei fghj = 101011 0001 => PASS
check special data - rd = 0
INPUT: Rd = 0 ABCDE FGH = 00111 000 OUTPUT: abcdei fghj = 001111 1000 EXPECTED: abcdei fghj = 001111 1000 => PASS
# run 1.00us
INPUT: Rd = 0 ABCDE FGH = 00111 100 OUTPUT: abcdei fghj = 001111 1001 EXPECTED: abcdei fghj = 001111 1001 => PASS
INPUT: Rd = 0 ABCDE FGH = 00111 010 OUTPUT: abcdei fghj = 001111 0101 EXPECTED: abcdei fghj = 001111 0101 => PASS
INPUT: Rd = 0 ABCDE FGH = 00111 110 OUTPUT: abcdei fghj = 001111 0011 EXPECTED: abcdei fghj = 001111 0011 => PASS
INPUT: Rd = 0 ABCDE FGH = 00111 001 OUTPUT: abcdei fghj = 001111 0010 EXPECTED: abcdei fghj = 001111 0010 => PASS
INPUT: Rd = 0 ABCDE FGH = 00111 101 OUTPUT: abcdei fghj = 001111 1010 EXPECTED: abcdei fghj = 001111 1010 => PASS
INPUT: Rd = 0 ABCDE FGH = 00111 011 OUTPUT: abcdei fghj = 001111 0110 EXPECTED: abcdei fghj = 001111 0110 => PASS
INPUT: Rd = 0 ABCDE FGH = 00111 111 OUTPUT: abcdei fghj = 001111 1000 EXPECTED: abcdei fghj = 001111 1000 => PASS
check special data - rd = 1
INPUT: Rd = 1 ABCDE FGH = 00111 000 OUTPUT: abcdei fghj = 110000 1011 EXPECTED: abcdei fghj = 110000 1011 => PASS
INPUT: Rd = 1 ABCDE FGH = 00111 100 OUTPUT: abcdei fghj = 110000 0110 EXPECTED: abcdei fghj = 110000 0110 => PASS
INPUT: Rd = 1 ABCDE FGH = 00111 010 OUTPUT: abcdei fghj = 110000 1010 EXPECTED: abcdei fghj = 110000 1010 => PASS
INPUT: Rd = 1 ABCDE FGH = 00111 110 OUTPUT: abcdei fghj = 110000 1100 EXPECTED: abcdei fghj = 110000 1100 => PASS
INPUT: Rd = 1 ABCDE FGH = 00111 001 OUTPUT: abcdei fghj = 110000 1101 EXPECTED: abcdei fghj = 110000 1101 => PASS
INPUT: Rd = 1 ABCDE FGH = 00111 101 OUTPUT: abcdei fghj = 110000 0101 EXPECTED: abcdei fghj = 110000 0101 => PASS
INPUT: Rd = 1 ABCDE FGH = 00111 011 OUTPUT: abcdei fghj = 110000 1001 EXPECTED: abcdei fghj = 110000 1001 => PASS
INPUT: Rd = 1 ABCDE FGH = 00111 111 OUTPUT: abcdei fghj = 110000 0111 EXPECTED: abcdei fghj = 110000 0111 => PASS
check non_special
INPUT: Rd = 0 ABCDE FGH = 00000 001 OUTPUT: abcdei fghj = 011000 1101 EXPECTED: abcdei fghj = 011000 1101 => PASS
INPUT: Rd = 0 ABCDE FGH = 01000 111 OUTPUT: abcdei fghj = 010010 1110 EXPECTED: abcdei fghj = 010010 1110 => PASS
# run 1.00us
INPUT: Rd = 0 ABCDE FGH = 11000 111 OUTPUT: abcdei fghj = 110001 1110 EXPECTED: abcdei fghj = 110001 1110 => PASS
INPUT: Rd = 1 ABCDE FGH = 00000 110 OUTPUT: abcdei fghj = 100111 0011 EXPECTED: abcdei fghj = 100111 0011 => PASS
INPUT: Rd = 1 ABCDE FGH = 11101 111 OUTPUT: abcdei fghj = 111010 0001 EXPECTED: abcdei fghj = 111010 0001 => PASS
# run 1.00us
# run 1.00us
# run 1.00us
